[
    "Aluminum Scrap",
    "Ballistic Fiber Scrap",
    "Black Titanium Scrap",
    "Bone Shards",
    "Ceramic Scrap",
    "Circuits",
    "Coal",
    "Concrete Scrap",
    "Copper Scrap",
    "Cork Scrap",
    "Crystal Shards",
    "Excess Adhesive",
    "Fiber Optics Bundle",
    "Fiberglass Spool",
    "Glass Shards",
    "Gold Scrap",
    "Lead Scrap",
    "Loose Gears",
    "Loose Screws",
    "Loose Spring",
    "Molded Plastic",
    "Nuclear Waste",
    "Raw Asbestos",
    "Raw Cloth",
    "Raw Fertilizer",
    "Raw Leather",
    "Raw Rubber",
    "Silver Scrap",
    "Steel Scrap",
    "Ultracite Scrap",
    "Waste Acid",
    "Waste Antiseptic",
    "Waste Oil",
    "Wood Scraps",
    ".308 Round",
    ".38 Round",
    "44 Round",
    ".50 Caliber Ball",
    ".50 Round",
    "5.56 Round",
    "Flare",
    "Fusion Cell",
    "Fusion Core",
    "Gamma Round",
    "Plasma Cartridge",
    "Syringer Ammo",
    "Searing Heavy Sharp Rocket Sledgehammer...",
    "Recipe: Delbert's Appalachili",
    "Burnt Textbook",
    "Gunpowder",
    "Burnt Lifestyle Magazine",
    "Burnt Book",
    "Blamco Brand Mac and Cheese",
    "Bobblehead: Big Guns",
    "Fancy Lads Snack Cakes",
    "Grognak the Barbarian 4",
    "Potato Crisps",
    "Spoiled Fruit",
    "Spoiled Meat",
    "Spoiled Vegetables",
    "Stimpak",
    "Stimpak: Super",
    "Blue Bandana",
    "Campaign Hat",
    "Dirty Army Helmet",
    "Greaser Jacket and Jeans",
    "Faded Visor",
    "Mining Helmet",
    "Newsboy Cap",
    "Ranger Hat",
    "Ranger Outfit",
    "Responders Paramedic Jumpsuit",
    "T-Shirt and Slacks",
    "38 Round",
    "50 Caliber Ball",
    "50 Round",
    "556 Round",
    "Chinese Office Sword Electrified Serrat",
    "Sacrificial Blade Machete Mod",
    "Searing Heavy Sharp Rocket Sledgehammer",
    "Assaultron Circuit Board",
    "Deathclaw Hand",
    "Scrap Assaultron Head",
    "Recipe Delberts Appalachili",
    "Burnt Trade Magazine",
    "Silver Ore",
    "TShirt and Slacks",
    "308 Round",
    "45 Round",
    "10mm Round",
    "2mm Electromagnetic Cartridge",
    "40mm Grenade Round",
    "5mm Round",
    "Crossbow Bolt",
    "Cryo Cell",
    "Fuel",
    "Harpoon",
    "Plasma Core",
    "Shotgun Shell",
    "A Reminder to Myself",
    "Aluminum Ore",
    "Black Titanium Ore",
    "Bobby Pin",
    "Box of Shooting Targets",
    "Copper Ore",
    "Fire Breathers Schematics Code Rifles",
    "Fire Breathers Schematics Code Support",
    "Gregs Mine Supply Keys",
    "Growth Enhancer Recipe",
    "Growth Suppressor Recipe",
    "Hornwright Bunker Card Alpha",
    "Hornwright Bunker Card Beta",
    "Hornwright Estate Access Keycard",
    "Hornwright HR Password",
    "Hornwright Senior Executive ID",
    "Raw Crystal",
    "Technical Data",
    "Uranium Ore",
    "Warehouse Basement Keycard",
    "Addictol",
    "Antibiotics",
    "Berry Mentats",
    "Blood Pack",
    "Boiled Water",
    "Buffout",
    "Bufftats",
    "Cajun Rice  Beans",
    "Canned Coffee",
    "Canned Dog Food",
    "Cola Perk Bubblegum",
    "Cram",
    "Dandy Boy Apples",
    "Day Tripper",
    "Dirty Water",
    "Disease Cure",
    "Fury",
    "ry",
    "Grape Mentats",
    "Imitation Seafood",
    "InstaMash",
    "MedX",
    "Mentats",
    "Mountain Honey",
    "NukaCola Quantum",
    "Orange Mentats",
    "Overdrive",
    "Pepper",
    "Psycho",
    "Psychobuff",
    "Psychotats",
    "Purified Water",
    "RadX",
    "Radx Diluted",
    "RadAway",
    "RadAway Diluted",
    "Salt",
    "Spices",
    "Stealth Boy",
    "Stimpak Diluted",
    "Stimpak Super",
    "Sugar",
    "XCell",
    "BlackRim Glasses",
    "Bottlecap Sunglasses",
    "Bowler",
    "Camden Park Uniform",
    "Casual Outfit",
    "Chef Hat",
    "Clown Hat",
    "Clown Outfit",
    "Combat Armor Helmet",
    "Cop Cap",
    "Damaged Hazmat Suit",
    "Explorer Outfit",
    "Dirty Fedora",
    "Farmhand Clothes",
    "Fire Breather Helmet",
    "Fire Breather Uniform",
    "Fishermans Hat",
    "Gas Mask",
    "Golf Outfit",
    "Golf Skirt",
    "Gray Knit Cap",
    "Green Bandana",
    "Green Shirt and Combat Boots",
    "Hard Hat",
    "Hazmat Suit",
    "Hooded Rags",
    "Mechanic Jumpsuit",
    "Military Cap",
    "Military Fatigues",
    "Miner Hat Clean",
    "Miner Uniform",
    "Padded Blue Jacket",
    "Pastors Vestments",
    "Patched ThreePiece Suit",
    "Patrolman Sunglasses",
    "Police Uniform",
    "Power Armor Chassis",
    "Prospectors Hat",
    "Ratty Skirt",
    "Responder Police Uniform",
    "Sack Hood",
    "Skiing Outfit",
    "Skiing Outfit Hat",
    "Skiing Outfit Hat Bg",
    "Steel Worker Uniform",
    "Straight Jacket",
    "Sunglasses",
    "Surveyor Outfit",
    "Suspenders and Slacks",
    "Tattered Dress",
    "Vault 76 Jumpsuit",
]