{
    "10mm Round": {
        "category": "AMMO",
        "perk": "None",
        "weight": 0.005
    },
    "2mm Electromagnetic Cartridge": {
        "category": "AMMO",
        "perk": "None",
        "weight": 0.1
    },
    "308 Round": {
        "category": "AMMO",
        "perk": "None",
        "weight": 0.006
    },
    "38 Round": {
        "category": "AMMO",
        "perk": "None",
        "weight": 0.003
    },
    "40mm Grenade Round": {
        "category": "AMMO",
        "perk": "explosives",
        "weight": 0.2
    },
    "44 Round": {
        "category": "AMMO",
        "perk": "None",
        "weight": 0.004
    },
    "45 Round": {
        "category": "AMMO",
        "perk": "None",
        "weight": 0.003
    },
    "50 Caliber Ball": {
        "category": "AMMO",
        "perk": "None",
        "weight": 0.1
    },
    "50 Round": {
        "category": "AMMO",
        "perk": "None",
        "weight": 0.005
    },
    "556 Round": {
        "category": "AMMO",
        "perk": "None",
        "weight": 0.005
    },
    "5mm Round": {
        "category": "AMMO",
        "perk": "None",
        "weight": 0.001
    },
    "A Reminder to Myself": {
        "category": "HOLO",
        "perk": "None",
        "weight": 0.0
    },
    "Addictol": {
        "category": "AID",
        "perk": "chems",
        "weight": 0.25
    },
    "Aluminum Ore": {
        "category": "MISC",
        "perk": "None",
        "weight": 0.1
    },
    "Aluminum Scrap": {
        "category": "JUNK",
        "perk": "junk",
        "weight": 0.1
    },
    "Antiarmor Pickaxe": {
        "category": "WEAPONS",
        "perk": "None",
        "weight": 3.0
    },
    "Antibiotics": {
        "category": "AID",
        "perk": "None",
        "weight": 0.25
    },
    "Armor Piercing Combat Shotgun": {
        "category": "WEAPONS",
        "perk": "None",
        "weight": 14.7
    },
    "Assaultron Circuit Board": {
        "category": "JUNK",
        "perk": "junk",
        "weight": 2.0
    },
    "Ballistic Fiber Scrap": {
        "category": "JUNK",
        "perk": "junk",
        "weight": 0.1
    },
    "Baseball Grenade": {
        "category": "WEAPONS",
        "perk": "explosives",
        "weight": 1.0
    },
    "Beer": {
        "category": "AID",
        "perk": "None",
        "weight": 1.0
    },
    "Berry Mentats": {
        "category": "AID",
        "perk": "chems",
        "weight": 0.25
    },
    "Berserkers Spear": {
        "category": "WEAPONS",
        "perk": "test",
        "weight": 2.0
    },
    "Black Titanium Ore": {
        "category": "MISC",
        "perk": "None",
        "weight": 0.1
    },
    "Black Titanium Scrap": {
        "category": "JUNK",
        "perk": "junk",
        "weight": 0.1
    },
    "BlackRim Glasses": {
        "category": "APPAREL",
        "perk": "None",
        "weight": 0.1
    },
    "Blamco Brand Mac and Cheese": {
        "category": "AID",
        "perk": "foodndrink",
        "weight": 0.25
    },
    "Blood Pack": {
        "category": "AID",
        "perk": "None",
        "weight": 0.25
    },
    "Blue Bandana": {
        "category": "APPAREL",
        "perk": "None",
        "weight": 0.1
    },
    "Bobblehead Medicine": {
        "category": "AID",
        "perk": "None",
        "weight": 1.0
    },
    "Bobby Pin": {
        "category": "MISC",
        "perk": "None",
        "weight": 0.1
    },
    "Boiled Water": {
        "category": "AID",
        "perk": "foodndrink",
        "weight": 0.75
    },
    "Bolstering Leather Left Arm": {
        "category": "APPAREL",
        "perk": "None",
        "weight": 3.1
    },
    "Bolstering Welded Raider Chest Piece": {
        "category": "APPAREL",
        "perk": "None",
        "weight": 7.88
    },
    "Bone Shards": {
        "category": "JUNK",
        "perk": "junk",
        "weight": 0.05
    },
    "Bottlecap Sunglasses": {
        "category": "APPAREL",
        "perk": "None",
        "weight": 0.1
    },
    "Bowler": {
        "category": "APPAREL",
        "perk": "None",
        "weight": 0.1
    },
    "Box of Shooting Targets": {
        "category": "MISC",
        "perk": "None",
        "weight": 0.0
    },
    "Brotherhood Fatigues": {
        "category": "APPAREL",
        "perk": "None",
        "weight": 0.1
    },
    "Buffout": {
        "category": "AID",
        "perk": "chems",
        "weight": 0.25
    },
    "Bufftats": {
        "category": "AID",
        "perk": "chems",
        "weight": 0.25
    },
    "Burnt Book": {
        "category": "MISC",
        "perk": "None",
        "weight": 1.0
    },
    "Burnt Lifestyle Magazine": {
        "category": "MISC",
        "perk": "None",
        "weight": 0.1
    },
    "Burnt Textbook": {
        "category": "MISC",
        "perk": "None",
        "weight": 1.0
    },
    "Burnt Trade Magazine": {
        "category": "MISC",
        "perk": "None",
        "weight": 0.1
    },
    "Cajun Rice  Beans": {
        "category": "AID",
        "perk": "foodndrink",
        "weight": 0.5
    },
    "Camden Park Uniform": {
        "category": "APPAREL",
        "perk": "None",
        "weight": 0.1
    },
    "Campaign Hat": {
        "category": "APPAREL",
        "perk": "None",
        "weight": 0.1
    },
    "Canned Coffee": {
        "category": "AID",
        "perk": "foodndrink",
        "weight": 0.5
    },
    "Canned Dog Food": {
        "category": "AID",
        "perk": "foodndrink",
        "weight": 0.5
    },
    "Casual Outfit": {
        "category": "APPAREL",
        "perk": "None",
        "weight": 0.1
    },
    "Ceramic Scrap": {
        "category": "JUNK",
        "perk": "junk",
        "weight": 0.05
    },
    "Chameleon Combat Armor Left Arm": {
        "category": "APPAREL",
        "perk": "None",
        "weight": 4.95
    },
    "Chameleon Combat Armor Right Arm": {
        "category": "APPAREL",
        "perk": "None",
        "weight": 3.85
    },
    "Chameleon Metal Chest Piece": {
        "category": "APPAREL",
        "perk": "None",
        "weight": 7.43
    },
    "Charging Tesla Rifle": {
        "category": "WEAPONS",
        "perk": "None",
        "weight": 8.0
    },
    "Chef Hat": {
        "category": "APPAREL",
        "perk": "None",
        "weight": 0.1
    },
    "Chinese Office Sword Electrified Serrat": {
        "category": "MODS",
        "perk": "None",
        "weight": 1.0
    },
    "Circuits": {
        "category": "JUNK",
        "perk": "junk",
        "weight": 0.1
    },
    "Civil War Era Dress": {
        "category": "APPAREL",
        "perk": "None",
        "weight": 0.1
    },
    "Civil War Era Top Hat": {
        "category": "APPAREL",
        "perk": "None",
        "weight": 0.1
    },
    "Cloaking Trapper Chest Piece": {
        "category": "APPAREL",
        "perk": "None",
        "weight": 5.0
    },
    "Clown Hat": {
        "category": "APPAREL",
        "perk": "None",
        "weight": 0.1
    },
    "Clown Outfit": {
        "category": "APPAREL",
        "perk": "None",
        "weight": 0.1
    },
    "Coal": {
        "category": "JUNK",
        "perk": "junk",
        "weight": 0.1
    },
    "Cola Perk Bubblegum": {
        "category": "AID",
        "perk": "foodndrink",
        "weight": 0.1
    },
    "Combat Armor Helmet": {
        "category": "APPAREL",
        "perk": "None",
        "weight": 0.1
    },
    "Compensated Hardened Piercing Hunting R": {
        "category": "WEAPONS",
        "perk": "None",
        "weight": 17.4
    },
    "Concrete Scrap": {
        "category": "JUNK",
        "perk": "junk",
        "weight": 0.05
    },
    "Cop Cap": {
        "category": "APPAREL",
        "perk": "None",
        "weight": 0.1
    },
    "Copper Ore": {
        "category": "MISC",
        "perk": "None",
        "weight": 0.1
    },
    "Copper Scrap": {
        "category": "JUNK",
        "perk": "junk",
        "weight": 0.1
    },
    "Cork Scrap": {
        "category": "JUNK",
        "perk": "junk",
        "weight": 0.025
    },
    "Corn Soup": {
        "category": "AID",
        "perk": "foodndrink",
        "weight": 0.5
    },
    "Cram": {
        "category": "AID",
        "perk": "foodndrink",
        "weight": 0.5
    },
    "Crossbow Bolt": {
        "category": "AMMO",
        "perk": "None",
        "weight": 0.06
    },
    "Cryo Cell": {
        "category": "AMMO",
        "perk": "None",
        "weight": 0.03
    },
    "Cryogenic Grenade": {
        "category": "WEAPONS",
        "perk": "explosives",
        "weight": 0.5
    },
    "Crystal Shards": {
        "category": "JUNK",
        "perk": "junk",
        "weight": 0.1
    },
    "Cultist Blade": {
        "category": "WEAPONS",
        "perk": "None",
        "weight": 3.0
    },
    "Cultist Dagger": {
        "category": "WEAPONS",
        "perk": "None",
        "weight": 1.0
    },
    "Daddy0": {
        "category": "AID",
        "perk": "chems",
        "weight": 0.25
    },
    "DaddyO": {
        "category": "AID",
        "perk": "chems",
        "weight": 0.25
    },
    "Damaged Hazmat Suit": {
        "category": "APPAREL",
        "perk": "None",
        "weight": 4.0
    },
    "Dandy Boy Apples": {
        "category": "AID",
        "perk": "foodndrink",
        "weight": 0.5
    },
    "Day Tripper": {
        "category": "AID",
        "perk": "chems",
        "weight": 0.25
    },
    "Deathclaw Hand": {
        "category": "JUNK",
        "perk": "junk",
        "weight": 5.0
    },
    "Deep Pocketed Leather Left Leg": {
        "category": "APPAREL",
        "perk": "None",
        "weight": 2.59
    },
    "Deep Pocketed Leather Right Leg": {
        "category": "APPAREL",
        "perk": "None",
        "weight": 2.59
    },
    "Dirty Army Fatigues": {
        "category": "APPAREL",
        "perk": "None",
        "weight": 0.1
    },
    "Dirty Army Fatigues a": {
        "category": "APPAREL",
        "perk": "None",
        "weight": 0.1
    },
    "Dirty Army Helmet": {
        "category": "APPAREL",
        "perk": "None",
        "weight": 0.1
    },
    "Dirty Fedora": {
        "category": "APPAREL",
        "perk": "None",
        "weight": 0.1
    },
    "Dirty Tan Suit": {
        "category": "APPAREL",
        "perk": "None",
        "weight": 0.1
    },
    "Dirty Water": {
        "category": "AID",
        "perk": "foodndrink",
        "weight": 0.75
    },
    "Disease Cure": {
        "category": "AID",
        "perk": "None",
        "weight": 0.25
    },
    "Drill": {
        "category": "WEAPONS",
        "perk": "None",
        "weight": 2.0
    },
    "Excavator Helmet SS": {
        "category": "APPAREL",
        "perk": "None",
        "weight": 0.0
    },
    "Excess Adhesive": {
        "category": "JUNK",
        "perk": "junk",
        "weight": 0.05
    },
    "Explorer Outfit": {
        "category": "APPAREL",
        "perk": "None",
        "weight": 0.1
    },
    "Eyeglasses": {
        "category": "APPAREL",
        "perk": "None",
        "weight": 0.1
    },
    "Faded Visor": {
        "category": "APPAREL",
        "perk": "None",
        "weight": 0.1
    },
    "Fancy Lads Snack Cakes": {
        "category": "AID",
        "perk": "foodndrink",
        "weight": 0.25
    },
    "Farmhand Clothes": {
        "category": "APPAREL",
        "perk": "None",
        "weight": 0.1
    },
    "Fashionable Glasses": {
        "category": "APPAREL",
        "perk": "None",
        "weight": 0.1
    },
    "Fiber Optics Bundle": {
        "category": "JUNK",
        "perk": "junk",
        "weight": 0.05
    },
    "Fiberglass Spool": {
        "category": "JUNK",
        "perk": "junk",
        "weight": 0.05
    },
    "Fire Breather Helmet": {
        "category": "APPAREL",
        "perk": "None",
        "weight": 0.1
    },
    "Fire Breather Uniform": {
        "category": "APPAREL",
        "perk": "None",
        "weight": 0.1
    },
    "Fire Breathers Schematics Code Rifles": {
        "category": "MISC",
        "perk": "None",
        "weight": 0.0
    },
    "Fire Breathers Schematics Code Support": {
        "category": "MISC",
        "perk": "None",
        "weight": 0.0
    },
    "Fishermans Hat": {
        "category": "APPAREL",
        "perk": "None",
        "weight": 0.1
    },
    "Flare": {
        "category": "AMMO",
        "perk": "None",
        "weight": 0.1
    },
    "Foremans Key": {
        "category": "MISC",
        "perk": "None",
        "weight": 0.0
    },
    "Fragmentation Grenade": {
        "category": "WEAPONS",
        "perk": "explosives",
        "weight": 0.5
    },
    "Fragmentation Mine": {
        "category": "WEAPONS",
        "perk": "test",
        "weight": 0.5
    },
    "Fuel": {
        "category": "AMMO",
        "perk": "None",
        "weight": 0.01
    },
    "Fury": {
        "category": "AID",
        "perk": "chems",
        "weight": 0.25
    },
    "Fusion Cell": {
        "category": "AMMO",
        "perk": "None",
        "weight": 0.005
    },
    "Fusion Core": {
        "category": "AMMO",
        "perk": "None",
        "weight": 3.0
    },
    "Gamma Round": {
        "category": "AMMO",
        "perk": "None",
        "weight": 0.01
    },
    "Gas Mask": {
        "category": "APPAREL",
        "perk": "None",
        "weight": 0.1
    },
    "Gatling Laser": {
        "category": "WEAPONS",
        "perk": "None",
        "weight": 18.45
    },
    "Gatling Plasma": {
        "category": "WEAPONS",
        "perk": "None",
        "weight": 18.0
    },
    "Glass Shards": {
        "category": "JUNK",
        "perk": "junk",
        "weight": 0.05
    },
    "Glowing Blood": {
        "category": "AID",
        "perk": "None",
        "weight": 0.3
    },
    "Gold Scrap": {
        "category": "JUNK",
        "perk": "junk",
        "weight": 0.05
    },
    "Golf Outfit": {
        "category": "APPAREL",
        "perk": "None",
        "weight": 0.1
    },
    "Golf Skirt": {
        "category": "APPAREL",
        "perk": "None",
        "weight": 0.1
    },
    "Grape Mentats": {
        "category": "AID",
        "perk": "chems",
        "weight": 0.25
    },
    "Gray Knit Cap": {
        "category": "APPAREL",
        "perk": "None",
        "weight": 0.1
    },
    "Greaser Jacket and Jeans": {
        "category": "APPAREL",
        "perk": "None",
        "weight": 0.1
    },
    "Green Bandana": {
        "category": "APPAREL",
        "perk": "None",
        "weight": 0.1
    },
    "Green Rag Hat": {
        "category": "APPAREL",
        "perk": "None",
        "weight": 0.1
    },
    "Green Shirt and Combat Boots": {
        "category": "APPAREL",
        "perk": "None",
        "weight": 0.1
    },
    "Gregs Mine Supply Keys": {
        "category": "MISC",
        "perk": "None",
        "weight": 0.0
    },
    "Grognak the Barbarian 4": {
        "category": "AID",
        "perk": "None",
        "weight": 0.2
    },
    "Growth Enhancer Recipe": {
        "category": "MISC",
        "perk": "None",
        "weight": 0.1
    },
    "Growth Suppressor Recipe": {
        "category": "MISC",
        "perk": "None",
        "weight": 0.1
    },
    "Gunpowder": {
        "category": "MISC",
        "perk": "None",
        "weight": 0.05
    },
    "HalluciGen Gas Grenade": {
        "category": "WEAPONS",
        "perk": "explosives",
        "weight": 1.0
    },
    "Hard Hat": {
        "category": "APPAREL",
        "perk": "None",
        "weight": 0.1
    },
    "Harpoon": {
        "category": "AMMO",
        "perk": "None",
        "weight": 0.2
    },
    "Hazmat Suit": {
        "category": "APPAREL",
        "perk": "None",
        "weight": 5.0
    },
    "Hooded Rags": {
        "category": "APPAREL",
        "perk": "None",
        "weight": 0.1
    },
    "Hooded Rags NS": {
        "category": "APPAREL",
        "perk": "None",
        "weight": 0.1
    },
    "Hornwright Bunker Card Alpha": {
        "category": "MISC",
        "perk": "None",
        "weight": 0.0
    },
    "Hornwright Bunker Card Beta": {
        "category": "MISC",
        "perk": "None",
        "weight": 0.0
    },
    "Hornwright Estate Access Keycard": {
        "category": "MISC",
        "perk": "None",
        "weight": 0.0
    },
    "Hornwright HR Password": {
        "category": "MISC",
        "perk": "None",
        "weight": 0.0
    },
    "Hornwright Senior Executive ID": {
        "category": "MISC",
        "perk": "None",
        "weight": 0.0
    },
    "Imitation Seafood": {
        "category": "AID",
        "perk": "foodndrink",
        "weight": 0.5
    },
    "InstaMash": {
        "category": "AID",
        "perk": "foodndrink",
        "weight": 0.5
    },
    "Instigating Cultist Dagger": {
        "category": "WEAPONS",
        "perk": "None",
        "weight": 1.0
    },
    "Jimmys Terminal Password": {
        "category": "MISC",
        "perk": "None",
        "weight": 0.0
    },
    "Key": {
        "category": "MISC",
        "perk": "None",
        "weight": 0.0
    },
    "Lab Coat": {
        "category": "APPAREL",
        "perk": "None",
        "weight": 0.1
    },
    "Lead Scrap": {
        "category": "JUNK",
        "perk": "junk",
        "weight": 0.1
    },
    "Lettermans Jacket and Jeans": {
        "category": "APPAREL",
        "perk": "None",
        "weight": 0.1
    },
    "Life Saving Leather Right Arm": {
        "category": "APPAREL",
        "perk": "None",
        "weight": 3.1
    },
    "Loose Gears": {
        "category": "JUNK",
        "perk": "junk",
        "weight": 0.1
    },
    "Loose Screws": {
        "category": "JUNK",
        "perk": "junk",
        "weight": 0.025
    },
    "Loose Spring": {
        "category": "JUNK",
        "perk": "junk",
        "weight": 0.1
    },
    "Lucky Hole Key": {
        "category": "MISC",
        "perk": "None",
        "weight": 0.0
    },
    "Mama Dolces Manager ID Card": {
        "category": "MISC",
        "perk": "None",
        "weight": 0.0
    },
    "Marksmans Hardened Piercing Combat Sho": {
        "category": "WEAPONS",
        "perk": "None",
        "weight": 17.68
    },
    "Mechanic Jumpsuit": {
        "category": "APPAREL",
        "perk": "None",
        "weight": 0.1
    },
    "MedX": {
        "category": "AID",
        "perk": "chems",
        "weight": 0.25
    },
    "Mentats": {
        "category": "AID",
        "perk": "chems",
        "weight": 0.25
    },
    "Military Cap": {
        "category": "APPAREL",
        "perk": "None",
        "weight": 0.1
    },
    "Military Fatigues": {
        "category": "APPAREL",
        "perk": "None",
        "weight": 1.1
    },
    "Miner Hat Clean": {
        "category": "APPAREL",
        "perk": "None",
        "weight": 0.1
    },
    "Miner Uniform": {
        "category": "APPAREL",
        "perk": "None",
        "weight": 0.1
    },
    "Minigun": {
        "category": "WEAPONS",
        "perk": "None",
        "weight": 18.0
    },
    "Mining Helmet": {
        "category": "APPAREL",
        "perk": "None",
        "weight": 0.1
    },
    "Missile": {
        "category": "AMMO",
        "perk": "explosives",
        "weight": 2.0
    },
    "Missile Launcher": {
        "category": "WEAPONS",
        "perk": "None",
        "weight": 20.0
    },
    "Missile Launcher ee": {
        "category": "UNDEFINED",
        "perk": "None",
        "weight": 20.0
    },
    "Molded Plastic": {
        "category": "JUNK",
        "perk": "junk",
        "weight": 0.05
    },
    "Molotov Cocktail": {
        "category": "WEAPONS",
        "perk": "None",
        "weight": 0.5
    },
    "Mountain Honey": {
        "category": "AID",
        "perk": "foodndrink",
        "weight": 1.2
    },
    "Mutfruit Juice": {
        "category": "AID",
        "perk": "foodndrink",
        "weight": 0.5
    },
    "Mutt Chops": {
        "category": "AID",
        "perk": "foodndrink",
        "weight": 1.0
    },
    "Newsboy Cap": {
        "category": "APPAREL",
        "perk": "None",
        "weight": 0.1
    },
    "Nocturnal Wood Left Leg": {
        "category": "APPAREL",
        "perk": "None",
        "weight": 1.35
    },
    "Noodle Cup": {
        "category": "AID",
        "perk": "foodndrink",
        "weight": 1.0
    },
    "Nuclear Waste": {
        "category": "JUNK",
        "perk": "junk",
        "weight": 0.1
    },
    "NukaCola": {
        "category": "AID",
        "perk": "foodndrink",
        "weight": 1.0
    },
    "NukaCola Quantum": {
        "category": "AID",
        "perk": "foodndrink",
        "weight": 1.0
    },
    "Oak Holler Lager": {
        "category": "AID",
        "perk": "None",
        "weight": 1.0
    },
    "Orange Mentats": {
        "category": "AID",
        "perk": "chems",
        "weight": 0.25
    },
    "Overdrive": {
        "category": "AID",
        "perk": "chems",
        "weight": 0.25
    },
    "Padded Blue Jacket": {
        "category": "APPAREL",
        "perk": "None",
        "weight": 0.1
    },
    "Pastors Vestments": {
        "category": "APPAREL",
        "perk": "None",
        "weight": 0.1
    },
    "Patched ThreePiece Suit": {
        "category": "APPAREL",
        "perk": "None",
        "weight": 0.1
    },
    "Patrolman Sunglasses": {
        "category": "APPAREL",
        "perk": "None",
        "weight": 0.1
    },
    "Pepper": {
        "category": "AID",
        "perk": "None",
        "weight": 0.25
    },
    "Plasma Cartridge": {
        "category": "AMMO",
        "perk": "None",
        "weight": 0.03
    },
    "Plasma Core": {
        "category": "AMMO",
        "perk": "None",
        "weight": 1.0
    },
    "Plasma Grenade": {
        "category": "WEAPONS",
        "perk": "explosives",
        "weight": 0.5
    },
    "Pocketed Hardened Raider Chest Piece": {
        "category": "APPAREL",
        "perk": "None",
        "weight": 6.53
    },
    "Pocketed Raider Chest Piece": {
        "category": "APPAREL",
        "perk": "None",
        "weight": 4.22
    },
    "Poisoners Combat Armor Right Arm": {
        "category": "APPAREL",
        "perk": "None",
        "weight": 4.95
    },
    "Police Uniform": {
        "category": "APPAREL",
        "perk": "None",
        "weight": 0.1
    },
    "Pompadour Wig": {
        "category": "APPAREL",
        "perk": "None",
        "weight": 0.1
    },
    "Potato Crisps": {
        "category": "AID",
        "perk": "foodndrink",
        "weight": 0.25
    },
    "Power Armor Chassis": {
        "category": "APPAREL",
        "perk": "None",
        "weight": 10.0
    },
    "Pristine Miner Uniform": {
        "category": "APPAREL",
        "perk": "None",
        "weight": 0.1
    },
    "Prospectors Hat": {
        "category": "APPAREL",
        "perk": "None",
        "weight": 0.1
    },
    "Protest Sign  Aint a Commie": {
        "category": "WEAPONS",
        "perk": "None",
        "weight": 3.0
    },
    "Psycho": {
        "category": "AID",
        "perk": "chems",
        "weight": 0.25
    },
    "Psychobuff": {
        "category": "AID",
        "perk": "chems",
        "weight": 0.25
    },
    "Psychotats": {
        "category": "AID",
        "perk": "chems",
        "weight": 0.25
    },
    "Pulse Mine": {
        "category": "WEAPONS",
        "perk": "explosives",
        "weight": 0.5
    },
    "Purified Water": {
        "category": "AID",
        "perk": "foodndrink",
        "weight": 0.5
    },
    "RadAway": {
        "category": "AID",
        "perk": "chems",
        "weight": 0.25
    },
    "RadAway Diluted": {
        "category": "AID",
        "perk": "chems",
        "weight": 0.25
    },
    "RadX": {
        "category": "AID",
        "perk": "chems",
        "weight": 0.25
    },
    "RadX Diluted": {
        "category": "AID",
        "perk": "chems",
        "weight": 0.25
    },
    "Radx Diluted": {
        "category": "AID",
        "perk": "chems",
        "weight": 0.25
    },
    "Ranger Hat": {
        "category": "APPAREL",
        "perk": "None",
        "weight": 0.1
    },
    "Ranger Outfit": {
        "category": "APPAREL",
        "perk": "None",
        "weight": 0.1
    },
    "Ratty Skirt": {
        "category": "APPAREL",
        "perk": "None",
        "weight": 0.1
    },
    "Ratty Skirt wi": {
        "category": "APPAREL",
        "perk": "None",
        "weight": 0.1
    },
    "Raw Asbestos": {
        "category": "JUNK",
        "perk": "junk",
        "weight": 0.1
    },
    "Raw Cloth": {
        "category": "JUNK",
        "perk": "junk",
        "weight": 0.05
    },
    "Raw Crystal": {
        "category": "MISC",
        "perk": "None",
        "weight": 0.1
    },
    "Raw Fertilizer": {
        "category": "JUNK",
        "perk": "junk",
        "weight": 0.1
    },
    "Raw Leather": {
        "category": "JUNK",
        "perk": "junk",
        "weight": 0.05
    },
    "Raw Rubber": {
        "category": "JUNK",
        "perk": "junk",
        "weight": 0.05
    },
    "Razorgrain": {
        "category": "AID",
        "perk": "foodndrink",
        "weight": 0.25
    },
    "Recipe Delberts Appalachili": {
        "category": "NOTES",
        "perk": "None",
        "weight": 0.25
    },
    "Recipe: Delbert's Appalachili": {
        "category": "NOTES",
        "perk": "None",
        "weight": 0.25
    },
    "Recon Hardened Piercing 10mm Pistol": {
        "category": "WEAPONS",
        "perk": "None",
        "weight": 7.2
    },
    "Recon Hardened Piercing Combat Sniper R": {
        "category": "WEAPONS",
        "perk": "None",
        "weight": 18.55
    },
    "Responder Police Uniform": {
        "category": "APPAREL",
        "perk": "None",
        "weight": 0.1
    },
    "Responders Paramedic Jumpsuit": {
        "category": "APPAREL",
        "perk": "None",
        "weight": 0.1
    },
    "Sack Hood": {
        "category": "APPAREL",
        "perk": "None",
        "weight": 0.1
    },
    "Sack Hood with Straps": {
        "category": "APPAREL",
        "perk": "None",
        "weight": 0.1
    },
    "Sacrificial Blade Machete Mod": {
        "category": "MODS",
        "perk": "None",
        "weight": 1.0
    },
    "Salt": {
        "category": "AID",
        "perk": "None",
        "weight": 0.25
    },
    "Salvaged Assaultron Head": {
        "category": "WEAPONS",
        "perk": "None",
        "weight": 8.0
    },
    "Scavenger Outfit": {
        "category": "APPAREL",
        "perk": "None",
        "weight": 0.1
    },
    "Scrap Assaultron Head": {
        "category": "JUNK",
        "perk": "junk",
        "weight": 8.0
    },
    "Searing Heavy Sharp Rocket Sledgehammer": {
        "category": "MODS",
        "perk": "None",
        "weight": 1.0
    },
    "Serrated Bowie Knife": {
        "category": "WEAPONS",
        "perk": "None",
        "weight": 1.2
    },
    "Serrated Machete": {
        "category": "WEAPONS",
        "perk": "None",
        "weight": 2.6
    },
    "Shotgun Shell": {
        "category": "AMMO",
        "perk": "None",
        "weight": 0.006
    },
    "Silver Ore": {
        "category": "MISC",
        "perk": "None",
        "weight": 0.1
    },
    "Silver Scrap": {
        "category": "JUNK",
        "perk": "junk",
        "weight": 0.05
    },
    "Skiing Outfit": {
        "category": "APPAREL",
        "perk": "None",
        "weight": 0.1
    },
    "Skiing Outfit Hat": {
        "category": "APPAREL",
        "perk": "None",
        "weight": 0.1
    },
    "Spear": {
        "category": "WEAPONS",
        "perk": "None",
        "weight": 2.0
    },
    "Spices": {
        "category": "AID",
        "perk": "None",
        "weight": 0.25
    },
    "Spoiled Fruit": {
        "category": "AID",
        "perk": "foodndrink",
        "weight": 0.1
    },
    "Spoiled Meat": {
        "category": "AID",
        "perk": "foodndrink",
        "weight": 0.25
    },
    "Spoiled Vegetables": {
        "category": "AID",
        "perk": "foodndrink",
        "weight": 0.1
    },
    "Stealth Boy": {
        "category": "AID",
        "perk": "None",
        "weight": 1.0
    },
    "Stealth Boy Mark III": {
        "category": "AID",
        "perk": "None",
        "weight": 1.0
    },
    "Steel Scrap": {
        "category": "JUNK",
        "perk": "junk",
        "weight": 0.05
    },
    "Steel Worker Uniform": {
        "category": "APPAREL",
        "perk": "None",
        "weight": 0.1
    },
    "Stimpak": {
        "category": "AID",
        "perk": "chems",
        "weight": 1.0
    },
    "Stimpak Diluted": {
        "category": "AID",
        "perk": "chems",
        "weight": 0.5
    },
    "Stimpak Super": {
        "category": "AID",
        "perk": "chems",
        "weight": 1.5
    },
    "Straight Jacket": {
        "category": "APPAREL",
        "perk": "None",
        "weight": 0.1
    },
    "Sugar": {
        "category": "AID",
        "perk": "None",
        "weight": 0.25
    },
    "Sugar Bombs": {
        "category": "AID",
        "perk": "foodndrink",
        "weight": 0.5
    },
    "Sunglasses": {
        "category": "APPAREL",
        "perk": "None",
        "weight": 0.1
    },
    "Surveyor Outfit": {
        "category": "APPAREL",
        "perk": "None",
        "weight": 0.1
    },
    "Suspenders and Slacks": {
        "category": "APPAREL",
        "perk": "None",
        "weight": 0.1
    },
    "Swimsuit": {
        "category": "APPAREL",
        "perk": "None",
        "weight": 0.1
    },
    "Syringer Ammo": {
        "category": "AMMO",
        "perk": "None",
        "weight": 0.005
    },
    "T60 Left Arm": {
        "category": "APPAREL",
        "perk": "None",
        "weight": 12.0
    },
    "TShirt and Slacks": {
        "category": "APPAREL",
        "perk": "None",
        "weight": 0.1
    },
    "Tato": {
        "category": "AID",
        "perk": "foodndrink",
        "weight": 0.5
    },
    "Tato Juice": {
        "category": "AID",
        "perk": "foodndrink",
        "weight": 0.5
    },
    "Tattered Dress": {
        "category": "APPAREL",
        "perk": "None",
        "weight": 0.1
    },
    "Tattered Rags": {
        "category": "APPAREL",
        "perk": "None",
        "weight": 0.1
    },
    "Technical Data": {
        "category": "MISC",
        "perk": "None",
        "weight": 0.0
    },
    "The Dragon": {
        "category": "WEAPONS",
        "perk": "None",
        "weight": 7.8
    },
    "Throwing Knife": {
        "category": "WEAPONS",
        "perk": "None",
        "weight": 0.25
    },
    "Tomahawk": {
        "category": "WEAPONS",
        "perk": "None",
        "weight": 0.7
    },
    "Trilby Hat": {
        "category": "APPAREL",
        "perk": "None",
        "weight": 0.1
    },
    "Ultracite Scrap": {
        "category": "JUNK",
        "perk": "junk",
        "weight": 0.1
    },
    "Uranium Ore": {
        "category": "MISC",
        "perk": "None",
        "weight": 0.1
    },
    "Ushanka Hat": {
        "category": "APPAREL",
        "perk": "None",
        "weight": 0.1
    },
    "Vampires Hardened Piercing Pipe Rifle": {
        "category": "WEAPONS",
        "perk": "None",
        "weight": 10.6
    },
    "Vault 76 Jumpsuit": {
        "category": "APPAREL",
        "perk": "None",
        "weight": 1.1
    },
    "Vault 76 Jumpsuit S": {
        "category": "APPAREL",
        "perk": "None",
        "weight": 1.1
    },
    "Warehouse Basement Keycard": {
        "category": "MISC",
        "perk": "None",
        "weight": 0.0
    },
    "Waste Acid": {
        "category": "JUNK",
        "perk": "junk",
        "weight": 0.05
    },
    "Waste Antiseptic": {
        "category": "JUNK",
        "perk": "junk",
        "weight": 0.1
    },
    "Waste Oil": {
        "category": "JUNK",
        "perk": "junk",
        "weight": 0.1
    },
    "Watermelon Perk Bubblegum": {
        "category": "AID",
        "perk": "foodndrink",
        "weight": 0.1
    },
    "Weightless Boiled Leather Right Leg": {
        "category": "APPAREL",
        "perk": "None",
        "weight": 1.58
    },
    "Welding Goggles": {
        "category": "APPAREL",
        "perk": "None",
        "weight": 0.1
    },
    "Whiskey": {
        "category": "AID",
        "perk": "None",
        "weight": 1.0
    },
    "Wild Blackberry": {
        "category": "AID",
        "perk": "None",
        "weight": 0.25
    },
    "Wood Scraps": {
        "category": "JUNK",
        "perk": "junk",
        "weight": 0.05
    },
    "Worn Veil": {
        "category": "APPAREL",
        "perk": "None",
        "weight": 0.1
    },
    "Wrapped Cap": {
        "category": "APPAREL",
        "perk": "None",
        "weight": 0.1
    },
    "XCell": {
        "category": "AID",
        "perk": "chems",
        "weight": 0.25
    }
}